<?xml version="1.0" encoding="UTF-8" standalone="no"?>
<svg
   xmlns:dc="http://purl.org/dc/elements/1.1/"
   xmlns:cc="http://creativecommons.org/ns#"
   xmlns:rdf="http://www.w3.org/1999/02/22-rdf-syntax-ns#"
   xmlns:svg="http://www.w3.org/2000/svg"
   xmlns="http://www.w3.org/2000/svg"
   xmlns:xlink="http://www.w3.org/1999/xlink"
   width="64.0px"
   height="64.0px"
   viewBox="0 0 64.0 64.0"
   version="1.1"
   id="SVGRoot">
  <defs
     id="defs10">
    <symbol
       id="RightArrow">
      <title
         id="title1369">Right Arrow</title>
      <path
         d="M 63,36 41,58 26,58 42,42 10,42 10,30 42,30 26,14 41,14 z"
         style="stroke:none"
         id="path1371" />
    </symbol>
    <symbol
       id="UpArrow">
      <title
         id="title1393">Up Arrow</title>
      <path
         d="M 36,9 58,31 58,46 42,30 42,62 30,62 30,30 14,46 14,31 z"
         style="stroke:none"
         id="path1395" />
    </symbol>
  </defs>
  <metadata
     id="metadata13">
    <rdf:RDF>
      <cc:Work
         rdf:about="">
        <dc:format>image/svg+xml</dc:format>
        <dc:type
           rdf:resource="http://purl.org/dc/dcmitype/StillImage" />
        <dc:title></dc:title>
      </cc:Work>
    </rdf:RDF>
  </metadata>
  <g
     id="layer1">
    <rect
       id="rect4150"
       width="64"
       height="63.999996"
       x="0"
       y="1.9073486e-06"
       style="fill:#084cc6;fill-opacity:1" />
    <g
       id="g7010"
       transform="translate(0,7.7941317)">
      <text
         xml:space="preserve"
         style="font-style:normal;font-variant:normal;font-weight:bold;font-stretch:normal;font-size:40px;line-height:1.25;font-family:'Noto Sans Armenian';-inkscape-font-specification:'Noto Sans Armenian Bold';fill:#000000;fill-opacity:1;stroke:none"
         x="12.107422"
         y="46.580078"
         id="text6779"><tspan
           id="tspan6777"
           x="12.107422"
           y="46.580078"
           style="font-style:normal;font-variant:normal;font-weight:bold;font-stretch:normal;font-family:'Noto Sans Armenian';-inkscape-font-specification:'Noto Sans Armenian Bold';fill:#ffffff">M</tspan></text>
      <g
         id="g7003">
        <circle
           style="fill:#ffffff;fill-opacity:1;stroke-width:0.691769"
           id="path6775-9-7"
           cx="32"
           cy="18.173105"
           r="5.1882663" />
        <use
           xlink:href="#UpArrow"
           style="fill:#ffffff;stroke:#000000"
           id="use6986"
           x="0"
           y="0"
           width="100%"
           height="100%"
           transform="matrix(0.38896864,0,0,0.38896864,17.997129,-1.6690592)" />
      </g>
    </g>
  </g>
</svg>
